{
  "required": true,
  "package": "com.biom4st3r.recipecache.mixin",
  "compatibilityLevel": "JAVA_8",
  "mixins": [
    "CraftingScreenHandlerMxn",
    "PlayerScreenHandlerMxn",
    "AbstractFurnaceBlockEntityMxn"
  ],
  "client": [
  ],
  "injectors": {
    "defaultRequire": 1
  }
}
